## Title: Sell Grey Items
## Interface: 100105
## Author: Paul Davis Tutherow Jr.
## Notes: "Adds a button to the Merchant frame that sells grey items"
## Version: 10.1.5
## Jul 12, 2023
sellgrey.lua
